/* adding extensions */
%{
#include "extensions/PythonBNListener.h"
#include "extensions/PythonLoadListener.h"
#include "extensions/PythonApproximationListener.h"
#include "extensions/PythonDatabaseGeneratorListener.h"
%}

%include "extensions/PythonBNListener.h"
%include "extensions/PythonLoadListener.h"
%include "extensions/PythonApproximationListener.h"
%include "extensions/PythonDatabaseGeneratorListener.h"
