// this file is for giving access to methods defined in ancestor.

%define ADD_APPROXIMATIONSCHEME_API(parent,classname...)
%extend classname {
  using parent::setVerbosity;
  using parent::setEpsilon;
  using parent::setMinEpsilonRate;
  using parent::setMaxIter;
  using parent::setMaxTime;
  using parent::setPeriodSize;

  using parent::verbosity;
  using parent::epsilon;
  using parent::minEpsilonRate;
  using parent::maxIter;
  using parent::maxTime;
  using parent::periodSize;

  using parent::nbrIterations;
  using parent::currentTime;

  using parent::messageApproximationScheme;
  using parent::history;

  const gum::IApproximationSchemeConfiguration& asIApproximationSchemeConfiguration() const {
    return *(dynamic_cast<const gum::IApproximationSchemeConfiguration *>(self));
  }
}
%enddef
ADD_APPROXIMATIONSCHEME_API(gum::ApproximationScheme,gum::GibbsSampling<double>)
ADD_APPROXIMATIONSCHEME_API(gum::ApproximationScheme,gum::ImportanceSampling<double>)
ADD_APPROXIMATIONSCHEME_API(gum::ApproximationScheme,gum::WeightedSampling<double>)
ADD_APPROXIMATIONSCHEME_API(gum::ApproximationScheme,gum::MonteCarloSampling<double>)
ADD_APPROXIMATIONSCHEME_API(gum::ApproximationScheme,gum::LoopySamplingInference<double,gum::ImportanceSampling>)
ADD_APPROXIMATIONSCHEME_API(gum::ApproximationScheme,gum::LoopySamplingInference<double,gum::WeightedSampling>)
ADD_APPROXIMATIONSCHEME_API(gum::ApproximationScheme,gum::LoopySamplingInference<double,gum::GibbsSampling>)
ADD_APPROXIMATIONSCHEME_API(gum::ApproximationScheme,gum::LoopySamplingInference<double,gum::MonteCarloSampling>)

ADD_APPROXIMATIONSCHEME_API(gum::ApproximationScheme,gum::LoopyBeliefPropagation<double>)

ADD_APPROXIMATIONSCHEME_API(gum::ApproximationScheme,gum::GibbsBNdistance<double>)

ADD_APPROXIMATIONSCHEME_API(gum::ApproximationScheme,gum::credal::CNMonteCarloSampling<double>)
ADD_APPROXIMATIONSCHEME_API(gum::ApproximationScheme,gum::credal::CNLoopyPropagation<double>)
ADD_APPROXIMATIONSCHEME_API(gum::learning::genericBNLearner,gum::learning::BNLearner<double>)

%extend gum::learning::BNLearner<double> {
  using gum::learning::genericBNLearner::setMaxTime;
  using gum::learning::genericBNLearner::maxTime;
  using gum::learning::genericBNLearner::currentTime;

  using gum::learning::genericBNLearner::learnDAG;
  using gum::learning::genericBNLearner::names;
  using gum::learning::genericBNLearner::modalities;
  using gum::learning::genericBNLearner::idFromName;
  using gum::learning::genericBNLearner::nameFromId;
  using gum::learning::genericBNLearner::useScoreAIC;
  using gum::learning::genericBNLearner::useScoreBD;
  using gum::learning::genericBNLearner::useScoreBDeu;
  using gum::learning::genericBNLearner::useScoreBIC;
  using gum::learning::genericBNLearner::useScoreK2;
  using gum::learning::genericBNLearner::useScoreLog2Likelihood;
  using gum::learning::genericBNLearner::setAprioriWeight;
  using gum::learning::genericBNLearner::setDatabaseWeight;
  using gum::learning::genericBNLearner::useNoApriori;
  using gum::learning::genericBNLearner::useAprioriSmoothing;
  using gum::learning::genericBNLearner::useAprioriDirichlet;
  using gum::learning::genericBNLearner::useGreedyHillClimbing;
  using gum::learning::genericBNLearner::useLocalSearchWithTabuList;
  using gum::learning::genericBNLearner::useK2;
  using gum::learning::genericBNLearner::setMaxIndegree;
  using gum::learning::genericBNLearner::setSliceOrder;
  using gum::learning::genericBNLearner::addForbiddenArc;
  using gum::learning::genericBNLearner::eraseForbiddenArc;
  using gum::learning::genericBNLearner::addMandatoryArc;
  using gum::learning::genericBNLearner::addMandatoryArc;
  using gum::learning::genericBNLearner::eraseMandatoryArc;
  using gum::learning::genericBNLearner::useEM;
  using gum::learning::genericBNLearner::hasMissingValues;
  using gum::learning::genericBNLearner::logLikelihood;
  using gum::learning::genericBNLearner::nbRows;
  using gum::learning::genericBNLearner::nbCols;
}

#####################################

%define ADD_NODEGRAPHPART_API(classname)
%extend classname {
  // erase node is not in this list since it is redefined by the very classes {Mixed|Di|Undi}Graph)
  gum::NodeId addNode() {
    return self->gum::NodeGraphPart::addNode();
  }
  std::vector<gum::NodeId> addNodes(gum::Size n) {
    return self->gum::NodeGraphPart::addNodes(n);
  }
  void addNodeWithId(const gum::NodeId id) {
    self->gum::NodeGraphPart::addNodeWithId(id);
  }
  bool existsNode(const gum::NodeId id) const {
    return self->gum::NodeGraphPart::existsNode(id);
  }
  gum::Size size() const {
    return self->gum::NodeGraphPart::size();
  }
  bool empty() const {
    return self->gum::NodeGraphPart::empty();
  }
}
%enddef
ADD_NODEGRAPHPART_API(gum::DiGraph)
ADD_ARCGRAPHPART_API(gum::DAG);
ADD_NODEGRAPHPART_API(gum::UndiGraph)
ADD_NODEGRAPHPART_API(gum::MixedGraph)

%define ADD_EDGEGRAPHPART_API(classname)
%extend classname {
  void addEdge(const NodeId n1,const NodeId n2) {
    self->gum::EdgeGraphPart::addEdge(n1,n2);
  }
  void eraseEdge(const NodeId n1,const NodeId n2) {
    self->gum::EdgeGraphPart::eraseEdge(gum::Edge(n1,n2));
  }
  bool existsEdge(const NodeId n1, const NodeId n2) const {
    return self->gum::EdgeGraphPart::existsEdge(n1,n2);
  }
  gum::Size sizeEdges() const {
    return self->gum::EdgeGraphPart::sizeEdges();
  }
  bool emptyEdges() const {
    return self->gum::EdgeGraphPart::emptyEdges();
  }
  void eraseNeighbours(const gum::NodeId n) {
    self->gum::EdgeGraphPart::eraseNeighbours(n);
  }
}
%enddef
ADD_EDGEGRAPHPART_API(gum::UndiGraph)
ADD_EDGEGRAPHPART_API(gum::MixedGraph)

%define ADD_ARCGRAPHPART_API(classname)
%extend classname {
  void addArc(const gum::NodeId n1,const gum::NodeId n2) {
    self->gum::ArcGraphPart::addArc(n1,n2);
  }
  void eraseArc(const gum::NodeId n1,const gum::NodeId n2) {
    self->gum::ArcGraphPart::eraseArc(gum::Arc(n1,n2));
  }
  bool existsArc(const gum::NodeId n1,const gum::NodeId n2) const {
    return self->gum::ArcGraphPart::existsArc(n1,n2);
  }
  void eraseParents(const gum::NodeId n) {
    self->gum::ArcGraphPart::eraseParents(n);
  }
  void eraseChildren(const gum::NodeId n) {
    self->gum::ArcGraphPart::eraseChildren(n);
  }
  gum::Size sizeArcs() const {
    return self->gum::ArcGraphPart::sizeArcs();
  }
  bool emptyArcs() const {
    return self->gum::ArcGraphPart::emptyArcs();
  }
}
%enddef
ADD_ARCGRAPHPART_API(gum::DiGraph);
ADD_ARCGRAPHPART_API(gum::DAG);
ADD_ARCGRAPHPART_API(gum::MixedGraph);


#####################################
%define ADD_MULTIDIMDECORATOR_API(classname)
%extend classname {
/* wrapping the minimal interface from MultiDimDecorator */
  double get(const gum::Instantiation& i) const {
    return self->gum::MultiDimDecorator<double>::get(i);
  }

  void set ( const Instantiation& i, const double& value ) const {
    self->gum::MultiDimDecorator<double>::set(i,value);
  }

  bool empty() const {
    return self->gum::MultiDimDecorator<double>::empty();
  }


  gum::Idx pos ( const gum::DiscreteVariable& v) const {
    return self->gum::MultiDimDecorator<double>::pos(v);
  }

  bool contains ( const gum::DiscreteVariable& v) const {
    return self->gum::MultiDimDecorator<double>::contains(v);
  }

  gum::Idx nbrDim() const {
    return self->gum::MultiDimDecorator<double>::nbrDim();
  }

  const gum::DiscreteVariable& variable ( Idx i) const {
    return self->gum::MultiDimDecorator<double>::variable(i);
  }

  const gum::DiscreteVariable& variable ( const std::string& name) const {
    return self->gum::MultiDimDecorator<double>::variable(name);
  }

  void remove(const gum::DiscreteVariable& var) {
    self->erase(var);
  }

  void add ( const DiscreteVariable& v ) {
    self->gum::MultiDimDecorator<double>::add(v);
  }
}
%enddef
ADD_MULTIDIMDECORATOR_API(gum::Potential<double>)
ADD_MULTIDIMDECORATOR_API(gum::Potential<double>)


#####################################
#####################################
%define ADD_CREDALINFERENCEENGINCE_API(classname)
%extend classname  {
  void setRepetitiveInd(const bool flag) {
    self->gum::credal::InferenceEngine<double>::setRepetitiveInd(flag);
  }
 const std::vector< double >& marginalMax ( const NodeId id ) const {
    return self->gum::credal::InferenceEngine<double>::marginalMax(id);
  }
 const std::vector< double >& marginalMin ( const NodeId id ) const {
    return self->gum::credal::InferenceEngine<double>::marginalMin(id);
  }
 const std::vector< double >& marginalMax ( const std::string name ) const {
    return self->gum::credal::InferenceEngine<double>::marginalMax(name);
  }
 const std::vector< double >& marginalMin ( const std::string name) const {
    return self->gum::credal::InferenceEngine<double>::marginalMin(name);
  }
  void insertModalsFile ( const std::string& path ) {
    self->gum::credal::InferenceEngine<double>::insertModalsFile(path);
  }
  const std::vector< double >& dynamicExpMax ( const std::string& varName ) const {
    return self->gum::credal::InferenceEngine<double>::dynamicExpMax(varName);
  }
  const std::vector< double >& dynamicExpMin ( const std::string& varName ) const {
    return self->gum::credal::InferenceEngine<double>::dynamicExpMin(varName);
  }
}
%enddef
ADD_CREDALINFERENCEENGINCE_API(gum::credal::CNMonteCarloSampling<double>)
ADD_CREDALINFERENCEENGINCE_API(gum::credal::CNLoopyPropagation<double>)


#####################################
#####################################
%extend gum::learning::BNLearner<double> {
  void setInitialDAG( const gum::DAG& g) {
    self->gum::learning::genericBNLearner::setInitialDAG(g);
  }
  void use3off2() {
    self->gum::learning::genericBNLearner::use3off2();
  }
  void useMIIC() {
    self->gum::learning::genericBNLearner::useMIIC();
  }
  void useNML(){
    self->gum::learning::genericBNLearner::useNML();
  }
  void useMDL(){
    self->gum::learning::genericBNLearner::useMDL();
  }
  void useNoCorr(){
    self->gum::learning::genericBNLearner::useNoCorr();
  }
  const std::vector<Arc> latentVariables() {
    return self->gum::learning::genericBNLearner::latentVariables();
  }
  gum::MixedGraph learnMixedStructure() {
    return self->gum::learning::genericBNLearner::learnMixedStructure();
  }
}



#####################################
#####################################
%define ADD_INFERENCE_API(classname...)
%extend classname  {
  void makeInference(void) {
    self->gum::BayesNetInference<double>::makeInference();
  }
  const Potential<double> posterior( const NodeId var ) {
    return self->MarginalTargetedInference<double>::posterior(var);
  }
  const Potential<double> posterior( const std::string nodeName ) {
    return self->MarginalTargetedInference<double>::posterior(nodeName);
  }
  const IBayesNet<double>& BN() const {
    return self->BayesNetInference<double>::BN();
  }

//######## EVIDENCE ##########
//############################
  void addEvidence( const NodeId id, const Idx val ) {
    self->gum::BayesNetInference<double>::addEvidence(id,val);
  }
  void addEvidence( const std::string& nodeName, const Idx val ) {
    self->gum::BayesNetInference<double>::addEvidence(nodeName,val);
  }
  void addEvidence( const NodeId id, const std::string& val ) {
    self->gum::BayesNetInference<double>::addEvidence(id,val);
  }

  void addEvidence( const std::string& nodeName, const std::string& val ) {
    self->gum::BayesNetInference<double>::addEvidence(nodeName,val);
  }

  void addEvidence( const NodeId id,const std::vector<double>& vals ) {
   self->gum::BayesNetInference<double>::addEvidence(id,vals);
  }
  void addEvidence( const std::string& nodeName,
                                const std::vector<double>& vals ) {
    self->gum::BayesNetInference<double>::addEvidence(nodeName,vals);
  }


  void chgEvidence( const NodeId id, const Idx val ) {
    self->gum::BayesNetInference<double>::chgEvidence(id,val);
  }
  void chgEvidence( const std::string& nodeName, const Idx val ) {
    self->gum::BayesNetInference<double>::chgEvidence(nodeName,val);
  }

  void chgEvidence( const NodeId id, const std::string& val ) {
    self->gum::BayesNetInference<double>::chgEvidence(id,val);
  }
  void chgEvidence( const std::string& nodeName, const std::string& val ) {
    self->gum::BayesNetInference<double>::chgEvidence(nodeName,val);
  }


  void chgEvidence( const NodeId id,const std::vector<double>& vals ) {
   self->gum::BayesNetInference<double>::chgEvidence(id,vals);
  }
  void chgEvidence( const std::string& nodeName,
                                const std::vector<double>& vals ) {
    self->gum::BayesNetInference<double>::chgEvidence(nodeName,vals);
  }

  bool hasEvidence( const NodeId id ) const {
    return self->gum::BayesNetInference<double>::hasEvidence(id);
  }
  bool hasEvidence( const std::string& nodeName) const {
    return self->gum::BayesNetInference<double>::hasEvidence(nodeName);
  }

  void eraseAllEvidence() {
    self->gum::BayesNetInference<double>::eraseAllEvidence();
  }

  void eraseEvidence( const NodeId id ) {
    self->gum::BayesNetInference<double>::eraseEvidence(id);
  }
  void eraseEvidence( const std::string& nodeName  ) {
    self->gum::BayesNetInference<double>::eraseEvidence(nodeName);
  }

  bool hasSoftEvidence( const NodeId id ) const {
    return self->gum::BayesNetInference<double>::hasSoftEvidence(id);
  }

  bool hasHardEvidence( const std::string& nodeName ) const {
    return self->gum::BayesNetInference<double>::hasHardEvidence(nodeName);
  }

  bool hasSoftEvidence( const std::string& nodeName ) const {
    return self->gum::BayesNetInference<double>::hasSoftEvidence(nodeName);
  }

  gum::Size nbrEvidence() const {
    return self->gum::BayesNetInference<double>::nbrEvidence();
  }

  gum::Size nbrHardEvidence() const {
    return self->gum::BayesNetInference<double>::nbrHardEvidence();
  }

  gum::Size nbrSoftEvidence() const {
    return self->gum::BayesNetInference<double>::nbrSoftEvidence();
  }


//######## TARGETS ##########
//############################
    void eraseAllTargets() {
      self->gum::MarginalTargetedInference<double>::eraseAllTargets();
    }

    void addAllTargets() {
      self->gum::MarginalTargetedInference<double>::addAllTargets();
    }

    void addTarget( const NodeId target ) {
      self->gum::MarginalTargetedInference<double>::addTarget(target);
    }

    void addTarget( const std::string& nodeName ) {
      self->gum::MarginalTargetedInference<double>::addTarget(nodeName);
    }

    void eraseTarget( const NodeId target ) {
      self->gum::MarginalTargetedInference<double>::eraseTarget(target);
    }

    void eraseTarget( const std::string& nodeName ) {
      self->gum::MarginalTargetedInference<double>::eraseTarget(nodeName);
    }

    bool isTarget( const NodeId variable ) const {
      return self->gum::MarginalTargetedInference<double>::isTarget(variable);
    }

    bool isTarget( const std::string& nodeName ) const {
      return self->gum::MarginalTargetedInference<double>::isTarget(nodeName);
    }

    gum::Size nbrTargets( ) const {
      return self->gum::MarginalTargetedInference<double>::nbrTargets();
    }

   double H( const NodeId X ) {
     return self->gum::MarginalTargetedInference<double>::H(X);
   }
   double H( const std::string& nodeName ) {
     return self->gum::MarginalTargetedInference<double>::H(nodeName);
   }

  Potential<double> evidenceImpact(NodeId target,const NodeSet& evs){
    return self->gum::MarginalTargetedInference<double>::evidenceImpact(target,evs);
  }
  Potential<double> evidenceImpact(const std::string& target,const std::vector<std::string>& evs){
   return self->gum::MarginalTargetedInference<double>::evidenceImpact(target,evs);
  }
}
%enddef
ADD_INFERENCE_API(gum::LazyPropagation<double>)
ADD_INFERENCE_API(gum::ShaferShenoyInference<double>)
ADD_INFERENCE_API(gum::VariableElimination<double>)
ADD_INFERENCE_API(gum::GibbsSampling<double>)
ADD_INFERENCE_API(gum::MonteCarloSampling<double>)
ADD_INFERENCE_API(gum::WeightedSampling<double>)
ADD_INFERENCE_API(gum::ImportanceSampling<double>)
ADD_INFERENCE_API(gum::LoopyBeliefPropagation<double>)
ADD_INFERENCE_API(gum::LoopySamplingInference<double,gum::ImportanceSampling>)
ADD_INFERENCE_API(gum::LoopySamplingInference<double,gum::GibbsSampling>)
ADD_INFERENCE_API(gum::LoopySamplingInference<double,gum::WeightedSampling>)
ADD_INFERENCE_API(gum::LoopySamplingInference<double,gum::MonteCarloSampling>)

%define ADD_SAMPLING_INFERENCE_API(classname...)
%extend classname  {
    const gum::Potential<double>& currentPosterior(const NodeId id)
        {return self->gum::SamplingInference<double>::currentPosterior(id);};
    const gum::Potential<double>& currentPosterior(const std::string& name)
        {return self->gum::SamplingInference<double>::currentPosterior(name);};
}
%enddef
ADD_SAMPLING_INFERENCE_API(gum::GibbsSampling<double>)
ADD_SAMPLING_INFERENCE_API(gum::MonteCarloSampling<double>)
ADD_SAMPLING_INFERENCE_API(gum::WeightedSampling<double>)
ADD_SAMPLING_INFERENCE_API(gum::ImportanceSampling<double>)
ADD_SAMPLING_INFERENCE_API(gum::LoopySamplingInference<double,gum::ImportanceSampling>)
ADD_SAMPLING_INFERENCE_API(gum::LoopySamplingInference<double,gum::GibbsSampling>)
ADD_SAMPLING_INFERENCE_API(gum::LoopySamplingInference<double,gum::WeightedSampling>)
ADD_SAMPLING_INFERENCE_API(gum::LoopySamplingInference<double,gum::MonteCarloSampling>)

%define ADD_JOINT_INFERENCE_API(classname)
%extend classname {
  const Potential<double> posterior( const NodeId var ) {
    return self->JointTargetedInference<double>::posterior(var);
  }
  const Potential<double> posterior( const std::string nodeName ) {
    return self->JointTargetedInference<double>::posterior(nodeName);
  }
  void eraseAllTargets() {
    self->gum::JointTargetedInference<double>::eraseAllTargets();
  }
  void eraseAllJointTargets() {
    self->gum::JointTargetedInference<double>::eraseAllJointTargets();
  }
  void eraseAllMarginalTargets() {
    self->gum::JointTargetedInference<double>::eraseAllMarginalTargets();
  }

  gum::Size nbrJointTargets() {
    return self->gum::JointTargetedInference<double>::nbrJointTargets();
  }

  double I( const NodeId X, const NodeId Y ) {
    return self->gum::JointTargetedInference<double>::I(X,Y);
  }
  double VI( const NodeId X, const NodeId Y ) {
    return self->gum::JointTargetedInference<double>::VI(X,Y);
  }

  Potential<double> evidenceJointImpact(const NodeSet& targets,const NodeSet& evs){
    return self->gum::JointTargetedInference<double>::evidenceJointImpact(targets,evs);
  }
  Potential<double> evidenceJointImpact(const std::vector<std::string>& targets,const std::vector<std::string>& evs){
   return self->gum::JointTargetedInference<double>::evidenceJointImpact(targets,evs);
  }
}
%enddef
ADD_JOINT_INFERENCE_API(gum::LazyPropagation<double>)
ADD_JOINT_INFERENCE_API(gum::ShaferShenoyInference<double>)


%define ADD_GIBBS_OPERATOR_API(classname...)
%extend classname {
    /** Getters and setters*/
    gum::Size nbrDrawnVar() const { return self->GibbsOperator<double>::nbrDrawnVar(); }
    void setNbrDrawnVar(Size _nbr) { self->GibbsOperator<double>::setNbrDrawnVar(_nbr); }
    bool isDrawnAtRandom() const { return self->GibbsOperator<double>::isDrawnAtRandom(); }
    void setDrawnAtRandom(bool _atRandom) { self->GibbsOperator<double>::setDrawnAtRandom(_atRandom); }
}
%enddef
ADD_GIBBS_OPERATOR_API(gum::GibbsSampling<double>)
ADD_GIBBS_OPERATOR_API(gum::LoopySamplingInference<double,gum::GibbsSampling>)
ADD_GIBBS_OPERATOR_API(gum::GibbsBNdistance<double>)

%extend gum::LoopySamplingInference<double,gum::GibbsSampling> {
  gum::Size burnIn() const { return self->gum::GibbsSampling<double>::burnIn();}
  void setBurnIn(gum::Size b) { self->gum::GibbsSampling<double>::setBurnIn(b);}
}

