%feature("docstring") gum::LoopySamplingInference<double,gum::ImportanceSampling>
"
Class used for inferences using a loopy version of importance sampling.

Available constructors:
	``LoopyImportanceSampling(bn) -> LoopyImportanceSampling``

Parameters
----------
bn : pyAgrum.BayesNet
	a Bayesian network
"